<?xml version="1.0" encoding="utf-8"?>
<!-- Generator: Adobe Illustrator 18.0.0, SVG Export Plug-In . SVG Version: 6.00 Build 0)  -->
<!DOCTYPE svg PUBLIC "-//W3C//DTD SVG 1.1//EN" "http://www.w3.org/Graphics/SVG/1.1/DTD/svg11.dtd">
<svg version="1.1" id="Layer_1" xmlns="http://www.w3.org/2000/svg" xmlns:xlink="http://www.w3.org/1999/xlink" x="0px" y="0px"
	 viewBox="0 0 571 152" enable-background="new 0 0 571 152" xml:space="preserve">
<path fill="#F16465" d="M564.6,139.3V134c0-0.5-0.4-1-1-1h-2.8c-0.2,0-0.4-0.1-0.6-0.2c-0.7-0.6-2.6-2.2-2.6-4.2h1v-1.1H558
	c-0.4,0-0.6-0.3-0.6-0.6v0c0-0.4-0.3-0.6-0.6-0.6h0c-0.4,0-0.6-0.3-0.6-0.6v-1c0-0.1,0-0.2-0.1-0.4l-2.7-7h-0.8v-7.8h0.6l0.8-1.3
	h-0.6c-0.4,0-0.8-0.2-0.9-0.6c-0.2-0.4-0.6-1-1.4-1.3c0,0-0.3-0.1-0.3-0.7s0.6-1.4,0-2.5c0,0-0.5-0.5-0.5,0c0,0.5-0.1,2.1-0.3,2.6
	c-0.3,0.5-0.6,0.8-0.6-0.1c0-0.5-0.3-0.8-0.5-0.9c-0.2-0.1-0.3-0.3-0.3-0.5v-1.3c0,0,0.1-0.5-0.5-0.9c-0.3-0.2-0.4-0.5-0.4-0.8v-0.6
	c0-0.2,0-0.3-0.1-0.5c-0.2-0.4-1-1.2-2.9-1.2l-0.2-0.6l0.4-0.5c0,0,2.8-0.5,2.8-2.9c0-1.5-0.3-2.1-0.5-2.3c-0.2-0.2-0.3-0.4-0.3-0.6
	l-0.2-1.5h-0.9l0.1,1.4h-0.6l0-1.4c0-0.3-0.1-0.5-0.3-0.7c-0.4-0.4-1.2-1.6-1.2-4.1h-0.3v4.3c0,0.1,0,0.1,0,0.2l0.4,2.1
	c0.1,0.5,0.5,0.9,1.1,0.8c0.7,0,1.6,0.1,1,1c-0.9,1.5-0.3,2.2-1,2.4c-0.6,0.2-1.7,1.1-1.9,0.3c-0.2-0.8,1.1-0.6,0-2.1
	c-1.1-1.4-1.1-1.4-1.1-2.4v-36c0-0.3,0.2-0.7,0.5-0.8l1.1-0.7l-0.6-0.2c-0.4-0.2-0.5-0.6-0.3-1l0.3-0.4c0.1-0.2,0.3-0.3,0.5-0.3h0.9
	c0,0,1.2-0.5,0.6-1.4v-0.3c0-0.5,0.4-1,1-1h0.6v-0.5h-0.8v-0.4h0.9c0,0-1.1-1.1-3.5-1.4c-0.5,0-0.9-0.5-0.9-1v-1.3h-1v-1.5
	c0-0.2,0.1-0.4,0.2-0.6l1.6-2.1h0.5l0.1-0.4h-0.6v-2.1h0.3v-0.7c0.3-0.1,0.7-0.4,0.7-0.8c0-0.7,0.5-1,0.5-1v-0.8h-0.5V36h-0.7v-1.4
	h0.7v-0.9h-0.7c-0.1-2-1.3-3.7-3-4.4v-0.8v-0.3h1v-1.2h0.5v-1.8h-0.9v-0.8h-0.5v-2.5l0-0.8h1.1c0.6,0,1.1-0.5,1-1.1l-0.4-2.7
	c-0.2-1,1-1.5,1.7-0.8l0.2,0.2h0.6v-1.7h-0.6v-2.4c0-0.2,0-0.3-0.1-0.5l-1.5-2.7c-0.1-0.2-0.3-0.3-0.6-0.3h-0.3
	c-0.4,0-0.6-0.3-0.6-0.6V7.1h-0.5V5.9c0-0.4-0.3-0.6-0.6-0.6h0c-0.4,0-0.6,0.3-0.6,0.6v0.7h-0.5h-0.3V7h-0.6v0.5h0.7v0.4h0.5
	l0.1,0.5h-6.2V7.9h-2.4v0.9h0.9v0.6h0.3V9l1.6,0.2c0.5,0.1,0.8,0.5,0.8,1V12c0,0,0.6,1.6,1.2,1.3c0,0,0.3-0.7,0.5-0.8
	c0.3,0,0.5,0,0.5,0l-0.9,6.6c0,0,0,0.1,0,0.1v1.2h1.1l0.2,0.2v3.6h-0.5v0.5h-1v2l0.5,0.3l0,1.1h0.3v0.6c0,0.3-0.2,0.7-0.5,0.8
	c-1.4,0.8-2.3,2.3-2.4,4.1h-0.7v0.9h0.7c0,0.1,0,0.2,0,0.3V36h-0.8v-0.4H532v0.8c0,0,0.5,0.3,0.5,1c0,0.5,0.5,0.8,0.8,0.9v0.7h0.2
	V41h-0.6l0.1,0.4h0.5l1.6,2.1c0.1,0.2,0.2,0.4,0.2,0.6v1.5h-1v1.3c0,0.5-0.4,0.9-0.9,1c-2.5,0.2-3.5,1.4-3.5,1.4h0.9v0.4h-0.8v0.5
	h0.6c0.5,0,1,0.4,1,1v0.3c-0.5,0.9,0.6,1.4,0.6,1.4h0.9c0.2,0,0.4,0.1,0.5,0.3l0.3,0.4c0.2,0.3,0.1,0.8-0.3,1l-0.6,0.2l1.1,0.7
	c0.3,0.2,0.5,0.5,0.5,0.8v36c0,1,0,0.9-1.1,2.4c-1.1,1.4,0.2,1.2,0,2.1c-0.2,0.8-1.2-0.1-1.9-0.3c-0.6-0.2-0.1-0.8-1-2.4
	c-0.6-0.9,0.3-1.1,1-1c0.5,0,1-0.3,1.1-0.8L533,90c0-0.1,0-0.1,0-0.2v-4.3h-0.3c0,2.5-0.8,3.7-1.2,4.1c-0.2,0.2-0.3,0.4-0.3,0.7
	l0,1.4h-0.6l0.1-1.4h-0.9l-0.2,1.5c0,0.2-0.1,0.4-0.3,0.6c-0.2,0.2-0.5,0.8-0.5,2.3c0,2.5,2.8,2.9,2.8,2.9l0.4,0.5l-0.2,0.6
	c-2,0-2.7,0.8-2.9,1.2c-0.1,0.1-0.1,0.3-0.1,0.5v0.6c0,0.3-0.2,0.6-0.4,0.8c-0.6,0.4-0.5,0.9-0.5,0.9v1.3c0,0.2-0.1,0.4-0.3,0.5
	c-0.2,0.1-0.5,0.4-0.5,0.9c0,0.9-0.3,0.6-0.6,0.1c-0.3-0.5-0.3-2-0.3-2.6c0-0.5-0.5,0-0.5,0c-0.6,1,0,1.8,0,2.5s-0.3,0.7-0.3,0.7
	c-0.8,0.3-1.2,0.9-1.4,1.3c-0.1,0.4-0.5,0.6-0.9,0.6h-0.6l0.8,1.3h0.6v7.8h-0.8l-2.7,7c0,0.1-0.1,0.2-0.1,0.4v1
	c0,0.4-0.3,0.6-0.6,0.6h0c-0.4,0-0.6,0.3-0.6,0.6v0c0,0.4-0.3,0.6-0.6,0.6h-0.8v1.1h1c0,2.1-1.8,3.7-2.6,4.2
	c-0.2,0.1-0.4,0.2-0.6,0.2h-2.8c-0.5,0-1,0.4-1,1l0,0c0,0.8-0.9,1.3-1.6,0.8l0,0c-0.3-0.2-0.4-0.5-0.4-0.8v-5.5c0-0.2,0-0.3,0.1-0.5
	c0.3-0.5,1.1-2,0.3-3.5c-0.1-0.1-0.1-0.2-0.1-0.4l-0.3-1.9h0.5l0-0.8h-0.8v-3.1c0-0.3,0.1-0.5,0.3-0.7l0.4-0.4
	c0.1-0.1,0.2-0.3,0.3-0.5l0.1-0.6c0,0,0.1-0.3-0.4-1.5c-0.5-1.1-0.1-2-0.1-2l-0.5-0.4l-0.8-0.9c-0.1-0.1-0.2-0.3-0.2-0.5
	c0-0.4-0.1-1-0.3-1.5c-0.2-0.8-0.7-6.7-0.7-11.3V94l0.3-0.2v-1.7c0,0-0.1-0.1-0.3-0.1h0v-4.1v-0.2l0.4-0.8c0.1-0.2,0.1-0.3,0.1-0.5
	l0-0.8h0v-0.3l-1.1-1.1v-0.9h-0.3v-2.3h1.2v0.3h0.3v-0.3v-0.5v-0.3h-0.3v0.3h-1.2v-1h0.2v-0.8h-0.9v0.8h0.2v1h-1.2v-0.3h-0.3v0.3
	v0.5v0.3h0.3v-0.3h1.2v2.3h-0.3v0.9l-1.1,1.1v0.3l0,0.8c0,0.2,0,0.3,0.1,0.5l0.4,0.7v0.2V92l-0.2,0.3V94l0.5,0.2
	c0,0-0.8,13.9-1.3,15.1l-0.4,0.3l-0.2,1.4c0,0.2-0.2,0.4-0.4,0.5l-0.3,0.1c-0.3,0.1-0.4,0.3-0.4,0.6v1.4c0,0.3-0.1,0.5-0.3,0.7
	c-0.4,0.4-1.2,1.2-1.6,1.9c-0.3,0.4-0.8,0.6-1.3,0.4c-0.8-0.3-1.8-1-2.2-2c-0.4-1.1-0.6-2.6-0.6-3.5c0-0.5-0.4-0.9-1-1l-0.4,0v-1.1
	h0.4v-1.7c0-1-0.6-1.7-1.3-1.7c-0.7,0-1.3,0.8-1.3,1.7v1.7h0.4v1.1l-0.6,0c-0.5,0-1,0.4-1,0.9l-0.2,3.3c0,0-0.3,1-1.7,0.3H489v2
	c0,0-0.1,1.1-0.8,1.1c-0.7,0-2.4-1.4-2.4-1.4l-0.3,0.4l1.2,1.7c0,0,0.2,0.7-0.5,0.7c-0.7,0-2.7,0-3.3,1.3c-0.5,1.2,0.2,0.8,0.2,0.8
	v0.8l-0.6,0.7c-0.2,0.2-0.3,0.5-0.3,0.9l0.2,1.1l0.3,0.7h0.6v0.8c0,0-0.9,1.4-0.9,2.7s0,7.8,0,7.8v2.3c0,0.5-0.4,1-1,1h-5.9
	c-0.5,0-1-0.4-1-1v-18.5c0-0.1,0-0.2,0.1-0.3l0.8-2.4c0-0.1,0.1-0.2,0.1-0.3v-0.9l-0.6-0.7v-2.7h-1v1h-0.4v-1.3h-1.1v2.3h-0.8v-3.1
	c0-1.9-1.8-2.7-2.8-3c-0.4-0.1-0.7-0.5-0.7-1v-0.5h-0.8c-3.8,0-3.5-3.3-3.5-3.3v-0.3c0-0.5-0.4-1-1-1h-0.8c-0.5,0-1-0.4-1-1v-0.7
	c0-0.5-0.4-1-1-1h-0.1c-0.5,0-1-0.4-1-1v-1.2h-0.7v-2.3h-0.6v-1.3h0.4v-1.8c0-1-0.6-1.8-1.4-1.8c-0.8,0-1.4,0.8-1.4,1.8v1.8h0.4v1.3
	H455v0.8c0,0.4-0.3,0.6-0.6,0.6h0c-0.4,0-0.6,0.3-0.6,0.6v1.8c0,0.5-0.4,1-1,1h-1.2v0.7c0,1.7-0.4,2.4-0.7,2.7
	c-0.2,0.2-0.4,0.2-0.7,0.2h-1.7c-0.5,0-1,0.4-1,1v0.8c0,3.2-1.9,3.9-2.5,4c-0.1,0-0.2,0-0.2,0h-1.4l0.1,0.8h0.5v0.9
	c0,2.1-1.7,3-2.3,3.2c-0.1,0-0.2,0.1-0.3,0.1H440c-0.5,0-1,0.4-1,1v4.2c0,0.4,0.3,0.6,0.6,0.6h0.4c0.4,0,0.6,0.3,0.6,0.6v17
	c0,0.5-0.4,1-1,1h-11.1c-0.5,0-1-0.4-1-1V77.9c0-0.3,0.1-0.5,0.3-0.7l0.6-0.6c0.4-0.4,0.1-1.1-0.4-1.1h-0.2c-0.4,0-0.6-0.3-0.6-0.6
	v-2.6h0V65h0v-2.8c0-0.2-0.1-0.4-0.2-0.6l-6-7.5c-0.4-0.5-1.2-0.5-1.6,0l-6,7.5c-0.1,0.2-0.2,0.4-0.2,0.6V64v1h0.1v7.3h-0.1v2.6
	c0,0.4-0.3,0.6-0.6,0.6h0c-0.6,0-0.8,0.7-0.5,1.1l0.4,0.4c0.1,0.1,0.2,0.3,0.2,0.4v61.9c0,0.5-0.4,1-1,1h-0.5h-2.2
	c-0.4,0-0.6-0.3-0.6-0.6v-0.4c0-0.2,0.1-0.4,0.3-0.5c0.4-0.2,0.6-0.5,0.6-0.7c0-0.3-0.3-0.6-0.8-0.8c-0.4-0.2-0.6-0.5-0.6-0.9
	l-0.6-37.3c0-0.5,0.3-0.9,0.8-1c0.5-0.1,0.7-0.3,0.7-0.7c0-0.8-1.4-1.5-3.2-1.5c-1.8,0-3.2,0.7-3.2,1.5c0,0.4,0.3,0.6,0.7,0.7
	c0.4,0.1,0.8,0.5,0.8,1l-0.6,37.3c0,0.4-0.2,0.7-0.6,0.9c-0.5,0.2-0.8,0.5-0.8,0.8c0,0.3,0.2,0.5,0.6,0.7c0.2,0.1,0.3,0.3,0.3,0.5
	v0.4c0,0.4-0.3,0.6-0.6,0.6h-6c-0.4,0-0.6-0.3-0.6-0.6v-0.4c0-0.2,0.1-0.4,0.3-0.5c0.4-0.2,0.6-0.5,0.6-0.7c0-0.3-0.3-0.6-0.8-0.8
	c-0.4-0.2-0.6-0.5-0.6-0.9l-0.6-37.3c0-0.5,0.3-0.9,0.8-1c0.5-0.1,0.7-0.3,0.7-0.7c0-0.8-1.4-1.5-3.2-1.5c-1.8,0-3.2,0.7-3.2,1.5
	c0,0.4,0.3,0.6,0.7,0.7c0.4,0.1,0.8,0.5,0.8,1l-0.6,37.3c0,0.4-0.2,0.7-0.6,0.9c-0.5,0.2-0.8,0.5-0.8,0.8c0,0.3,0.2,0.5,0.6,0.7
	c0.2,0.1,0.3,0.3,0.3,0.5v0.4c0,0.4-0.3,0.6-0.6,0.6h-6.1c-0.4,0-0.6-0.3-0.6-0.6v-0.4c0-0.2,0.1-0.4,0.3-0.5
	c0.4-0.2,0.6-0.5,0.6-0.7c0-0.3-0.3-0.6-0.8-0.8c-0.4-0.2-0.6-0.5-0.6-0.9l-0.6-37.3c0-0.5,0.3-0.9,0.8-1c0.5-0.1,0.7-0.3,0.7-0.7
	c0-0.8-1.4-1.5-3.2-1.5c-1.8,0-3.2,0.7-3.2,1.5c0,0.4,0.3,0.6,0.7,0.7c0.4,0.1,0.8,0.5,0.8,1l-0.6,37.3c0,0.4-0.2,0.7-0.6,0.9
	c-0.5,0.2-0.8,0.5-0.8,0.8c0,0.3,0.2,0.5,0.6,0.7c0.2,0.1,0.3,0.3,0.3,0.5v0.4c0,0.4-0.3,0.6-0.6,0.6h-5.8c-0.4,0-0.6-0.3-0.6-0.6
	v-0.4c0-0.2,0.1-0.4,0.3-0.5c0.4-0.2,0.6-0.5,0.6-0.7c0-0.3-0.3-0.6-0.8-0.8c-0.4-0.2-0.6-0.5-0.6-0.9l-0.6-37.3
	c0-0.5,0.3-0.9,0.8-1c0.5-0.1,0.7-0.3,0.7-0.7c0-0.8-1.4-1.5-3.2-1.5c-1.8,0-3.2,0.7-3.2,1.5c0,0.4,0.3,0.6,0.7,0.7
	c0.4,0.1,0.8,0.5,0.8,1l-0.6,37.3c0,0.4-0.2,0.7-0.6,0.9c-0.5,0.2-0.8,0.5-0.8,0.8c0,0.3,0.2,0.5,0.6,0.7c0.2,0.1,0.3,0.3,0.3,0.5
	v0.4c0,0.4-0.3,0.6-0.6,0.6h-3.1c-0.5,0-1-0.4-1-1V77.9c0-0.3,0.1-0.5,0.3-0.7l0.6-0.6c0.4-0.4,0.1-1.1-0.4-1.1h-0.2
	c-0.4,0-0.6-0.3-0.6-0.6v-2.6h0V65h0v-2.8c0-0.2-0.1-0.4-0.2-0.6l-6-7.5c-0.4-0.5-1.2-0.5-1.6,0l-6,7.5c-0.1,0.2-0.2,0.4-0.2,0.6V64
	v1h0.1v7.3h-0.1v2.6c0,0.4-0.3,0.6-0.6,0.6h0c-0.6,0-0.8,0.7-0.5,1.1l0.4,0.4c0.1,0.1,0.2,0.3,0.2,0.4v54.9c0,0.7-0.7,1.2-1.4,0.9
	l-9.6-4.3c-0.4-0.2-0.6-0.5-0.6-0.9v-9.2c0-0.2,0-0.4,0.1-0.5c0.5-0.8,1.8-3.3,0.4-5.7c-0.1-0.1-0.1-0.2-0.1-0.4l-0.4-3.2h0.8
	l0.1-1.2h-0.2c-0.5,0-1-0.4-1-1v-4.2c0-0.3,0.1-0.5,0.3-0.7l0.9-0.9c0.1-0.1,0.2-0.3,0.3-0.5l0.2-1.1c0,0,0.2-0.5-0.6-2.3
	c-0.8-1.8-0.2-3.2-0.2-3.2l-0.7-0.5c-0.1,0-0.1-0.1-0.2-0.1l-1.4-1.6c-0.1-0.2-0.2-0.3-0.2-0.5c-0.1-0.5-0.2-1.7-0.5-2.6
	c-0.4-1.2-1.1-10.7-1.1-18V64l0.5-0.4v-2.7c0,0-0.1-0.1-0.4-0.2h0.1v-6.6v-0.3l0.8-1.4c0.1-0.2,0.1-0.3,0.1-0.5l0-1.4h0v-0.4
	l-1.5-1.5c-0.2-0.2-0.3-0.4-0.3-0.7v-1h-0.5v-2.6c0-0.5,0.4-1,1-1h0.9v0.5h0.4v-0.5v-0.9v-0.5h-0.4v0.5h-0.9c-0.5,0-1-0.4-1-1v-0.6
	h0.3v-0.6c0-0.4-0.3-0.6-0.6-0.6h-0.1c-0.4,0-0.6,0.3-0.6,0.6v0.6h0.3v0.6c0,0.5-0.4,1-1,1h-0.9v-0.5h-0.4v0.5v0.9v0.5h0.4v-0.5h0.9
	c0.5,0,1,0.4,1,1v2.6h-0.5v1c0,0.3-0.1,0.5-0.3,0.7l-1.5,1.5v0.4l0,1.4c0,0.2,0,0.3,0.1,0.5l0.7,1.3v0.3v6.6l-0.4,0.5v2.7l0.8,0.4
	c0,0-1.1,20.5-1.9,23.8c-0.1,0.2-0.2,0.4-0.3,0.5l-0.4,0.3l-0.3,2.3c0,0.4-0.3,0.7-0.7,0.8l-0.5,0.2c-0.4,0.1-0.7,0.5-0.7,0.9v2.6
	c0,0.3-0.1,0.5-0.3,0.7c-0.7,0.7-2.4,2.4-3,3.7c-0.2,0.5-0.8,0.7-1.2,0.5c-1.3-0.5-3.3-1.5-4.1-3.4c-0.8-2-1-4.7-1-6.1
	c0-0.5-0.4-1-1-1l-0.2,0c-0.5,0-1-0.5-1-1v-0.8h0.6v-2.8c0-1.5-0.9-2.8-2.1-2.8c-1.2,0-2.1,1.2-2.1,2.8v2.8h0.6v0.7c0,0.6-0.5,1-1,1
	l-0.5,0c-0.5,0-1,0.4-1,0.9l-0.3,5.8c0,0-0.5,1.7-2.6,0.5h-0.8v3.2c0,0-0.2,1.8-1.4,1.8c-1.1,0-3.8-2.3-3.8-2.3l-0.5,0.6l2,2.8
	c0,0,0.3,1.1-0.8,1.1c-1.1,0-4.4,0.1-5.2,2c-0.8,2,0.4,1.4,0.4,1.4v1c0,0.3-0.1,0.5-0.3,0.7l-1,1c-0.2,0.2-0.3,0.5-0.3,0.9l0.3,2
	c0,0.1,0,0.1,0.1,0.2l0.4,1h1v1.1c0,0.2,0,0.3-0.1,0.5c-0.4,0.6-1.3,2.4-1.3,4.2c0,2.2,0,12.5,0,12.5v1.1c0,0.5-0.4,1-1,1h-6.6
	c-0.5,0-1-0.4-1-1v-16.4c0-0.3-0.1-0.6-0.4-0.8l-1.2-1c-0.2-0.2-0.4-0.4-0.4-0.7l-1.1-34.6c0,0,0-5.9,0-12.8
	c0-6.6-2.6-20.7-2.8-21.9c0-0.1,0-0.1,0-0.2l0-1.7c0.1-0.7-1.6-9.8-1.7-10.8c0-0.1,0-0.1,0-0.2v-3.9h-0.7v-9.4h-0.6v-0.7h0.7v-0.5
	h-0.7v-0.8l0.2,0h1.1V17l0.4-0.4c0.2-0.2,0.5-0.4,0.8-0.4h0.7v-0.5h-0.9l-1.9-2.3h-0.4v-1.4h-0.3h-0.1h-0.2H271h-0.2v1.4h-0.4
	l-1.9,2.3h-0.9v0.5h0.7c0.3,0,0.6,0.1,0.8,0.4l0.4,0.4v0.5h1.1v0.8h-0.7v0.5h0.7v0.7h-0.8v9.4h-0.7v4c0,0,0,0.1,0,0.1
	c-0.1,0.9-1.5,11.1-1.6,11.3c-0.1,0.3,0,1.8,0,2.3c0,0.1,0,0.2,0,0.3c0,0.2-0.1,0.4-0.1,0.5c-0.2,0.7-0.9,1-1.5,0.6
	c-1.4-0.9-2.8-1.7-2.8-1.7l0,0c-1.2-11.8-3.4-23.9-3.6-25c0-0.1,0-0.1,0-0.2v-4.1H259V7.7h-0.8V6.8h0.7V6.2h-0.7V5.4l0.2,0h1.1V4.9
	l0.4-0.4c0.2-0.2,0.5-0.4,0.8-0.4h0.7V3.7h-0.9l-1.9-2.3h-0.4V0h-0.3h-0.1h-0.2h-0.1h-0.2v1.4h-0.4l-1.9,2.3h-0.9v0.5h0.7
	c0.3,0,0.6,0.1,0.8,0.4l0.4,0.4v0.5h1.1v0.8h-0.7v0.5h0.7v0.9h-0.8v9.4h-0.5v4.1c0,0,0,0.1,0,0.1L254,33.2c0,0,0,0,0,0.1
	c-2.2,9.8-2.6,26.5-2.7,31c0,0.6-0.6,1.1-1.2,0.9c-0.5-0.1-1-0.2-1.4-0.2c-0.5-0.1-0.9-0.5-0.9-1c0.1-2.3-0.6-3.6-1-4.1
	c-0.1-0.2-0.2-0.4-0.2-0.6v-0.9h-0.5v-1.2c0.2-0.1,0.4-0.3,0.5-0.5h0.7v0.4h0.6v-1.4h-0.6v0.4h-0.7c-0.1-0.2-0.3-0.4-0.5-0.5V55h0.8
	v-0.6h-2.2V55h0.7v0.6c-0.2,0.1-0.4,0.3-0.5,0.5h-0.7v-0.4h-0.6v1.4h0.6v-0.4h0.7c0.1,0.2,0.2,0.4,0.5,0.5v1.2h-0.6v1
	c0,0.2-0.1,0.4-0.2,0.6c-1.2,1.7-0.7,5-0.7,5l0,0c-1,0.1-1.8,0.2-2.4,0.3c-0.6,0.1-1.2-0.4-1.2-1c0.2-17.9-3.1-31-3.4-32
	c0,0,0-0.1,0-0.1L235.9,22c0,0,0-0.1,0-0.1v-4.7h-0.5v-3.4c0,0,0,0,0-0.1L235,7.7h-0.6V6.8h0.7V6.2h-0.7V5.4l0.2,0h1.1V4.9l0.4-0.4
	c0.2-0.2,0.5-0.4,0.8-0.4h0.7V3.7h-0.9l-1.9-2.3h-0.4V0h-0.3H234h-0.2h-0.1h-0.2v1.4h-0.4l-1.9,2.3h-0.9v0.5h0.7
	c0.3,0,0.6,0.1,0.8,0.4l0.4,0.4v0.5h1.1v0.8h-0.7v0.5h0.7v0.9h-0.5l-0.3,6v3.5h-0.5v3.2l-0.4,0.1v1.4c0,0,0,0.1,0,0.1l-1.1,10.7
	c0,0,0,0.1,0,0.1c-1,3.6-1.6,8.4-2,13.4h0c0,0-1.2,0.8-2.4,1.6c-0.6,0.4-1.4,0-1.5-0.7c-1-7.6-2.1-13.7-2.2-14.4c0-0.1,0-0.1,0-0.2
	v-3.2h-0.5v-9.6H221v-0.9h0.7v-0.5H221v-0.8l0.2,0h1.1V17l0.4-0.4c0.2-0.2,0.5-0.4,0.8-0.4h0.7v-0.5h-0.9l-1.9-2.3h-0.4v-1.4h-0.3
	h-0.1h-0.2h-0.1H220v1.4h-0.4l-1.9,2.3h-0.9v0.5h0.7c0.3,0,0.6,0.1,0.8,0.4l0.4,0.4v0.5h1.1v0.8h-0.7v0.5h0.7v0.9H219V29h-0.5v3.6
	c0,0.1,0,0.1,0,0.2c-2.3,9.7-4.9,46.5-5,47.7c0,0,0,0,0,0.1v17.3c0,0.5-0.4,1-1,1h-2.8c-0.4,0-0.8-0.3-0.9-0.7l-1.3-3.8h0.4v-1.1
	H207l-0.9-2.6h0.5v-1.1h-0.8l-0.3-1c-0.1-0.4-0.5-0.7-0.9-0.7h-2c-0.4,0-0.8,0.3-0.9,0.7l-0.1,0.3c-0.1,0.4-0.5,0.7-0.9,0.7H200v1.1
	h0.8l-0.7,2c-0.1,0.4-0.5,0.7-0.9,0.7h-0.4v1.1h0.7l-1.3,3.8c-0.1,0.4-0.5,0.7-0.9,0.7h-4.4c-0.4,0-0.8-0.3-0.9-0.7l-1.3-3.8h0.5
	v-1.1h-0.9l-0.9-2.6h0.5v-1.1H189l-0.4-1.1c-0.1-0.4-0.5-0.7-0.9-0.7h-2.1c-0.4,0-0.8,0.3-0.9,0.7l-0.3,1.1h-0.9v1.1h0.5l-0.9,2.6
	h-0.9v1.1h0.5l-1.3,3.8c-0.1,0.4-0.5,0.7-0.9,0.7h-4.5c-0.4,0-0.8-0.3-0.9-0.7l-1.4-3.9h0.5v-1.1h-0.9l-0.9-2.6h0.6v-1.1h-1l-0.4-1
	c-0.1-0.4-0.5-0.7-0.9-0.7h-1.8c-0.4,0-0.8,0.3-0.9,0.7l-0.1,0.3c-0.1,0.4-0.5,0.7-0.9,0.7h-0.4v1.1h0.8l-0.7,2
	c-0.1,0.4-0.5,0.7-0.9,0.7h-0.4v1.1h0.7l-1.3,3.8c-0.1,0.4-0.5,0.7-0.9,0.7h-3.4c-0.4,0-0.8-0.2-0.9-0.6l-0.6-1.5
	c-0.2-0.4-0.5-0.6-0.9-0.6H156c-0.5,0-1,0.4-1,0.9l0,0.3c0,0.1,0,0.3,0.1,0.4l0.6,0.9c0.1,0.2,0.2,0.3,0.2,0.5v0.8h-1.1v-1.5h-1v3.7
	c0,0.3,0.1,0.5,0.3,0.7l1.6,1.5c0.2,0.2,0.4,0.5,0.3,0.9l-0.2,1.1h-0.9v3.7h-0.5v0.9h0.7c0.4,0,0.7,0.2,0.9,0.6l0.5,1
	c0.1,0.1,0.1,0.3,0.1,0.4v4c0,0.4-0.3,0.6-0.6,0.6l0,0c-0.4,0-0.6,0.3-0.6,0.6v1.6c0,0.5,0.4,1,1,1h1c0.5,0,1,0.4,1,1v1.9
	c0,0.3-0.1,0.6-0.3,0.7c-0.5,0.4-0.8,1.3-0.9,1.7c0,0.1,0,0.2,0,0.3v2.7c0,0.5-0.4,1-1,1h-8.2c-0.5,0-1-0.4-1-1v-8.9h1.2v-0.4
	c0-0.5-0.4-1-1-1h-0.6c-0.3,0-0.5-0.1-0.7-0.3l-2.5-2.8c-0.2-0.2-0.5-0.3-0.7-0.3h-4.1c-0.5,0-1,0.4-1,1v3c0,0.5-0.4,1-1,1h-10.9
	c-0.5,0-1-0.4-1-1v-17.9v-2.3c0-0.3,0.1-0.5,0.3-0.7l0.6-0.6l-1.4-0.8c-0.3-0.2-0.5-0.5-0.5-0.9v-6.2c0-0.5,0.4-1,1-1h0.3
	c0,0-1-8.8-3.6-9.9c-0.3-0.1-0.6-0.4-0.6-0.7L117.8,59c-0.2-1.1-1.8-1.1-2,0l-2.6,19.5c0,0.3-0.3,0.6-0.6,0.7
	c-2.6,1.1-3.6,9.9-3.6,9.9h0.3c0.5,0,1,0.4,1,1v6.2c0,0.4-0.2,0.7-0.5,0.9l-1.4,0.8l0.6,0.6c0.2,0.2,0.3,0.4,0.3,0.7v0.8
	c0,0.7-0.7,1.2-1.4,0.9l-5.8-2.3c-0.2-0.1-0.5-0.1-0.7,0L80.5,107c-0.2,0.1-0.4,0.2-0.5,0.4l-2.2,3.6c-0.4,0.6,0,1.4,0.7,1.5
	l1.9,0.2c0.5,0.1,0.9,0.5,0.9,1v21c0,0.5-0.4,1-1,1H42.7c-0.5,0-0.8-0.3-1-0.7c-1.4-5.4-10.1-39.1-13.4-49.3c-0.2-0.5-0.3-1-0.4-1.4
	c-0.2-0.8,0.6-1.5,1.4-1.1l5.9,2.9l-0.1-0.6L28,82c-0.3-0.2-0.6-0.5-0.6-0.9c-0.1-4.4,2.7-6.1,5.5-6.8c0.6-0.1,1.2,0.3,1.2,0.9l0,0
	c0.1,1.2,1.9,1.2,2,0l0.1-1.3c0.2,0,0.5,0,0.7,0c3.4,0,7-0.7,7-0.7c3.2-0.2,2.3-3.6,2-6.1C45.8,65,44.3,65,43.8,65
	c-0.1,0-0.2,0-0.3,0l-5.9-1.2c-0.4-0.1-0.8-0.5-0.8-0.9l-0.7-15.2c-0.1-1.3-1.9-1.3-2,0l-0.6,14.8c0,0.5-0.5,1-1,0.9
	c-6.6-0.1-10.7,0.5-12.4,0.9c-1.8,0.5-1.6,4.5-0.2,4.1c0.8-0.3,3.7-0.2,5.8-0.1c0.9,0,1.3,1.1,0.6,1.7l-5.1,4.8
	c-0.3,0.3-0.4,0.6-0.3,1c1.3,4.7,10,36.7,12.1,44.5c2.1,7.8-3.3,12.1-4,12.6c-0.1,0-0.1,0.1-0.2,0.1l-10.8,5.1
	c-0.1,0.1-0.3,0.1-0.4,0.1H9.9c-0.4,0-0.6,0.3-0.6,0.6v0.5c0,0.4-0.3,0.6-0.6,0.6L1,151c-0.5,0-1,0.4-1,1v-1c0,0.5,0.4,1,1,1h287.9
	h1.2h54.4h6h4.5h4.5h51.6h1.5h2.2h12.7H570c0.5,0,1-0.4,1-1v1.5c0-0.5-0.4-1-1-1l-4.4-11.2C565,140.3,564.6,139.9,564.6,139.3z
	 M536.9,24.7l0.6,0l0-0.3l-0.5-0.1v-1.8l0.2,0l0.2,0l0-1.8h0.7h0.7l0.5,1v2.6v0.8h-2.5V24.7z M424.4,65v7.3H424V65H424.4z
	 M423.1,72.3h-0.6V65h0.6V72.3z M418.5,65v7.3h-0.6V65H418.5z M419.4,65h0.5v7.3h-0.5V65z M420.8,65h0.7v7.3h-0.7V65z M417,65v7.3
	h-0.7V65H417z M425.9,72.3h-0.5V65h0.5V72.3z M414.8,65h0.6v7.3h-0.6V65z M356.4,65v7.3h-0.5V65H356.4z M355,72.3h-0.6V65h0.6V72.3z
	 M350.5,65v7.3h-0.6V65H350.5z M351.4,65h0.5v7.3h-0.5V65z M352.8,65h0.7v7.3h-0.7V65z M349,65v7.3h-0.7V65H349z M357.8,72.3h-0.5
	V65h0.5V72.3z M346.7,65h0.6v7.3h-0.6V65z M42.2,71.1c0,0.2-1.4,0.5-1.4,0.5l-0.4-2.1C42.1,68.7,42.2,70.8,42.2,71.1z M31.9,68.7h2
	v1.8c-1.7,0-4.1,1.4-4.1,1.4C28.8,71.7,31.9,68.7,31.9,68.7z M203.6,94.5l1.7,4.4H204l-0.4-1.3l-0.4,1.3H202L203.6,94.5z
	 M186.6,94.5l1.7,4.4H187l-0.4-1.3l-0.4,1.3H185L186.6,94.5z M169.9,94.5l1.7,4.4h-1.3l-0.4-1.3l-0.4,1.3h-1.3L169.9,94.5z
	 M160.6,101l-0.6-1.5h4.3l-0.5,1.5H160.6z M167.3,101.3l0.7-1.7h1.4l-0.5,1.7H167.3z M170.9,101.3l-0.5-1.7h1.4l0.7,1.7H170.9z
	 M176.2,101.3l-0.6-1.8h5.5l-0.6,1.8H176.2z M184.1,101.3l0.7-1.7h1.4l-0.5,1.7H184.1z M187.7,101.3l-0.5-1.7h1.4l0.7,1.7H187.7z
	 M193,101.3l-0.6-1.8h5.4l-0.6,1.8H193z M201,101.3l0.7-1.7h1.4l-0.5,1.7H201z M204.7,101.3l-0.5-1.7h1.4l0.7,1.7H204.7z
	 M209.7,101.2l-0.6-1.7h4.3v1.7H209.7z M228.2,49.2c-0.2,3.4-0.3,6.8-0.4,9.9c0,0-1-0.1-1.9-0.1c-0.3-2.6-0.6-5.2-0.9-7.7
	C225,51.3,226.5,49.4,228.2,49.2z M226.6,73.3c0.1-3.3-0.1-7.6-0.6-12.1c0.2-0.1,0.8-0.6,1.7-0.1c-0.1,6.9,0.1,12,0.1,12L226.6,73.3
	z M243.3,71.1c0,0-1.4,1.3-1.4,2.7c0,1.4,0.4,3.3,1.4,3.3v4.1l-1.4,1.3l-1.4-12.4c0,0,0.8-0.6,2.7-0.6V71.1z M249.8,82.5l-1.4-1.3
	v-4.1c1,0,1.4-1.9,1.4-3.3c0-1.4-1.4-2.7-1.4-2.7v-1.6c2,0,2.7,0.6,2.7,0.6L249.8,82.5z M266.7,51.3c-0.4,2.5-0.7,5.3-0.9,8.1
	c0,0-0.7-0.5-2.2,0l-0.1-9c0-0.4-0.1-0.9-0.1-1.3C265.7,49.1,266.7,51.3,266.7,51.3z M263.8,73.1l-0.2-11.9c0,0,1-0.7,2,0
	c-0.5,6.3-0.7,11.9-0.7,11.9H263.8z M328.4,50.9l-0.5,2.8h-0.1H327h0l-0.5-2.8H328.4z M327.8,54.1v6.3c-0.3,0-0.5,0-0.9,0v-6.2
	H327.8z M328.8,60.5c-0.1,0-0.3-0.1-0.4-0.1v-6.3h0.4V60.5z M328.8,53.7L328.8,53.7h-0.4l0.5-2.8h0.6l0,1.3L328.8,53.7z M325.2,50.9
	h0.6l0.5,2.8H326h0l-0.8-1.5L325.2,50.9z M326.4,54.1v6.3c-0.1,0-0.3,0-0.4,0v-6.3H326.4z M507.2,85.9h0.4l0,0.8l-0.5,0.9h0h-0.2
	L507.2,85.9z M507.1,87.9v4c-0.1,0-0.2,0-0.3,0v-4H507.1z M506.9,85.9l-0.3,1.7h0H506h0l-0.3-1.7H506.9z M506.5,87.9v3.9
	c-0.2,0-0.3,0-0.5,0v-3.9H506.5z M504.9,86.7l0-0.8h0.4l0.3,1.7h-0.2h0L504.9,86.7z M505.6,87.9v3.9c-0.1,0-0.2,0-0.3,0v-3.9H505.6z
	"/>
</svg>
